
{
"_id": "5f7c57a9b8e1cd001f5a317c",
"firstName": "John",
"lastName": "Smith",
"email": "johnsmith@mail.com",
"password": "john123",
"isAdmin": false,
"mobileNumber": "09191234567"
}

{
"_id": "608ab9e1b19eef001f822a51",
"firstName": "Emily",
"lastName": "Johnson",
"email": "emilyjohnson@mail.com",
"password": "emily456",
"isAdmin": true,
"mobileNumber": "09876543210"
}

{
"_id": "5f9b7a36ce8256001f33d1af",
"firstName": "Michael",
"lastName": "Davis",
"email": "michaeldavis@mail.com",
"password": "michael789",
"isAdmin": false,
"mobileNumber": "09771234567"
}

{
"_id": "617c83d7fc1c3e001f4466a3",
"firstName": "Sophia",
"lastName": "Wilson",
"email": "sophiawilson@mail.com",
"password": "sophia234",
"isAdmin": true,
"mobileNumber": "09182345678"
}

{
"_id": "5f6c489a085d0e001fe8b83d",
"firstName": "William",
"lastName": "Brown",
"email": "williambrown@mail.com",
"password": "william567",
"isAdmin": false,
"mobileNumber": "09451234567"
}

{
"_id": "6139ef8d0a1a32001fe1f737",
"firstName": "Olivia",
"lastName": "Taylor",
"email": "oliviataylor@mail.com",
"password": "olivia890",
"isAdmin": true,
"mobileNumber": "09251234567"
}

{
"_id": "60f24ccac99c7d001f1d5ef6",
"firstName": "James",
"lastName": "Anderson",
"email": "jamesanderson@mail.com",
"password": "james123",
"isAdmin": false,
"mobileNumber": "09781234567"
}

